﻿{
	"DomainClient": {
		"id": "string",
		"clientId": "055401242f6c4a18bf0574cd8221a472",
		"product": "cf",
		"domain": "hedge",
		"x-api-key": "4ef558bbe3dd4cf297b7e893407092358e033c9e7d40b15cee278781852a3f7b"
	},
	"SubDomainClient": {
		"id": "string",
		"clientId": "055401242f6c4a18bf0574cd8221a472",
		"product": "cf",
		"domain": "hedge",
		"subdomain": "transform-blob-to-blob",
		"x-api-key": "4ef558bbe3dd4cf297b7e893407092358e033c9e7d40b15cee278781852a3f7b"
	}
}